ID; TITLE; YEAR; IMAGE;
1; Piraci z Krzemowej Doliny; 1999; http://1.fwcdn.pl/po/30/02/33002/6988507.6.jpg;
2; Ja, robot; 2004; http://1.fwcdn.pl/po/54/92/95492/6918828.2.jpg;
3; Kod nieśmiertelności; 2011; http://1.fwcdn.pl/po/89/67/418967/7485520.2.jpg;
4; Ex Machina; 2015; http://1.fwcdn.pl/po/64/19/686419/7703095.2.jpg;
5; Hakerzy; 1995; http://1.fwcdn.pl/po/59/98/5998/7209965.6.jpg;
6; Tron; 1982; http://1.fwcdn.pl/po/12/03/11203/7708420.6.jpg;
7; Tron: Dziedzictwo; 2010; http://1.fwcdn.pl/po/74/78/487478/7335687.2.jpg;
8; Kontrola absolutna; 2016; https://ssl-gfx.filmweb.pl/po/52/53/745253/7749772.2.jpg;